@1800
E8 03 08 00 00 D6 FC FF 92 01 20 00 28 4B 12 45
86 44 8C 44 8C 44 62 44 70 45 D2 56 2C 4E AA 4D
AA 4D 00 00 E2 44 A0 45 6C 45 3C 1D 0A 00 00 1C
44 47 54 46 46 46 36 48 86 44 8C 44 8C 44 62 44
70 45 D2 56 2C 4E AA 4D AA 4D 00 00 00 00 00 00
00 00 00 00 00 00 00 00 00 00 00 00 EC 1D 60 18
@4400
B0 12 70 45 92 C3 DC 05 18 42 00 18 39 40 41 00
19 83 FE 23 18 83 FA 23 92 B3 DC 05 F3 23 30 41
8F 93 02 00 02 20 2F 52 34 3D 2F 83 8F 4E 00 00
1E 42 7E 1C 92 12 3A 18 B0 12 C0 4F 92 46 4E 47
3C 46 60 44 AE 45 00 46 06 0D 0A 1B 5B 37 6D 00
D0 45 D0 45 00 46 06 0D 0A 1B 5B 30 6D 00 D0 45
9A 4B B2 40 81 00 C0 05 92 42 02 18 C6 05 92 42
04 18 C8 05 F2 D0 03 00 0D 02 92 C3 C0 05 92 D3
DA 05 92 C3 30 01 92 B3 CA 05 FD 23 30 41 92 12
3E 18 84 12 AE 45 00 46 07 0D 0A 1B 5B 37 6D 23
D0 45 9C 48 00 46 0F 46 61 73 74 46 6F 72 74 68
20 56 34 2E 32 20 D0 45 EC 45 40 FF 0C 55 56 47
76 48 00 46 0A 62 79 74 65 73 20 66 72 65 65 00
42 46 52 44 00 00 0C 41 43 43 45 50 54 00 30 40
E2 44 08 4E 2E 4F 08 5E 39 40 0D 00 3A 40 20 00
3B 40 44 45 3C 40 50 45 5D 15 92 12 40 18 32 D0
18 00 FB 3F A2 B3 DC 05 FD 27 B2 40 13 00 CE 05
30 41 21 52 3A 17 58 42 CC 05 48 9C 08 2C 48 9B
F1 27 78 92 11 20 2E 9F 0F 24 1E 83 05 3C 0E 9A
03 2C CE 48 00 00 1E 53 A2 B3 DC 05 FD 27 C2 48
CE 05 30 4D 46 45 2D 83 92 B3 DC 05 E4 23 FC 3F
92 B3 DC 05 FD 27 58 42 CC 05 3E 8F 3D 41 48 4C
EB 3F 00 00 06 4B 45 59 30 40 6C 45 30 12 7E 45
A2 B3 DC 05 FD 27 B2 40 11 00 CE 05 30 41 2F 83
8F 4E 00 00 92 B3 DC 05 FD 27 B0 12 04 45 1E 42
CC 05 30 4D 00 00 08 45 4D 49 54 00 30 40 A0 45
08 4E 3E 4F C9 3F 96 45 08 45 43 48 4F 00 B2 40
A2 B3 38 45 30 4D 00 00 0C 4E 4F 45 43 48 4F 00
B2 40 30 4D 38 45 30 4D 00 00 08 54 59 50 45 00
0D 12 3D 40 E6 45 39 4F 2D 83 2F 83 8F 4E 00 00
7E 49 DC 3F E6 45 5E 83 F7 23 52 24 2F 83 8F 4E
00 00 3E 4D 30 4D AF 4F FC FF 8F 4E FE FF 2F 82
2F 82 8F 4E 02 00 7E 4D 8F 4D 00 00 0D 5E 1D B3
0D 63 30 4D 82 43 BC 1D B2 4F BA 1D 82 4E B8 1D
3E 4F 30 4D 2F 82 8F 4E 02 00 3E 40 54 00 BF 40
3C 1D 00 00 AF 4F FE FF 2F 83 51 3F 0E 93 3E 4F
21 20 2D 4D 30 4D 2F 83 8F 4E 00 00 3E 41 0D 12
3D 4E 30 4D 2F 83 8F 4E 00 00 3E 41 2E 4E 30 4D
00 00 0D 5B 54 48 45 4E 5D 00 30 4D 0A 4E 38 4F
3A 9F 39 4F 3E 4F E5 23 F8 99 00 00 E2 23 18 53
1A 83 FA 23 2D 53 30 4D 2F 53 3E 4F 1E 83 D9 23
3D 41 3E 4F 30 4D 90 46 62 46 0D 5B 45 4C 53 45
5D 00 0D 12 84 12 EC 45 01 00 42 46 BC 46 00 46
05 0D 6B 6F 20 0A D0 45 2A 46 14 46 B2 48 7C 4B
40 46 AE 46 F6 45 06 5B 54 48 45 4E 5D 00 6C 46
D6 46 88 46 BC 46 F6 45 06 5B 45 4C 53 45 5D 00
6C 46 E8 46 88 46 F4 46 00 46 04 5B 49 46 5D 00
6C 46 BC 46 5A 47 42 46 BC 46 9A 46 09 5B 49 46
5D 00 0E 93 3E 4F CD 27 30 4D FC 46 17 5B 55 4E
44 45 46 49 4E 45 44 5D 0D 12 84 12 B2 48 1E 49
22 47 1E 83 0E 7E 3D 41 2F 53 30 4D 0C 47 13 5B
44 45 46 49 4E 45 44 5D 0D 12 84 12 B2 48 1E 49
26 47 3F 12 2F 83 8F 4E 00 00 3E 41 30 4D 2F 83
8F 4E 00 00 30 4D 3E 8F 3E E3 1E 53 30 4D 00 00
05 53 22 00 2F 83 8F 4E 00 00 3E 40 22 00 0B 43
0D 12 84 12 EC 45 00 46 36 4C C0 48 7E 47 1A 53
1A B3 82 6A BE 1D 84 3F B8 45 05 2E 22 00 0D 12
84 12 64 47 EC 45 D0 45 36 4C 36 48 00 00 04 3C
23 00 B2 40 B2 1D B2 1D 30 4D 0B 4E 1C 4F 02 00
2E 4F 0A 43 35 40 20 00 0E 93 04 20 05 11 0E 4C
0C 43 09 43 0A 9B 01 28 0A 8B 09 69 08 68 15 83
07 30 0C 5C 0E 6E 0A 6A F5 2B 0A 8B 12 D3 F5 3F
35 40 46 46 8F 4A 02 00 8F 49 00 00 0E 48 30 41
00 00 02 23 1B 42 B6 1D 2C 4F 2F 83 B0 12 B2 47
BF 4F 00 00 7A 90 0A 00 02 28 7A 50 07 00 7A 50
30 00 92 83 B2 1D 18 42 B2 1D C8 4A 00 00 30 4D
F2 47 04 23 53 00 0D 12 84 12 F4 47 2E 48 2D 83
09 DE 09 93 E1 23 3D 41 30 4D 22 48 04 23 3E 00
9F 42 B2 1D 00 00 3E 40 B2 1D 2E 8F 30 4D 00 00
08 48 4F 4C 44 00 4A 4E 3E 4F DB 3F 60 47 08 53
49 47 4E 00 0E 93 3E 4F 7A 40 2D 00 D2 33 30 4D
00 00 04 55 2E 00 0C 43 2F 83 8F 4E 00 00 0E 43
1D 15 84 12 A2 47 EC 45 20 00 56 48 26 48 44 47
64 48 40 48 D0 45 36 48 8A 47 02 2E 0E 93 EB 37
3E E3 1E 53 3C 43 E8 3F 00 00 08 57 4F 52 44 00
05 3C 2F 83 8F 4E 00 00 3E 40 20 00 3B 40 20 00
3C 40 B8 1D 39 4C 38 4C 09 58 38 5C 2A 4C 08 99
18 2C 7E 98 FC 27 18 83 F8 90 27 00 02 00 01 20
0B 43 CA 4C 00 00 08 99 0C 24 7C 48 4E 9C 09 24
1A 53 7C 90 61 00 F5 2B 7C 90 7B 00 F2 2F 4C 8B
F0 3F 18 82 BA 1D 82 48 BC 1D 1E 42 BE 1D 0A 8E
CE 4A 00 00 30 4D 00 00 08 46 49 4E 44 00 2F 83
0C 4E 3B 40 C4 1D 3E 4B 0E 93 1E 24 58 4C 01 00
78 F0 1F 00 08 58 0E 58 2E 53 1E 4E FE FF 0E 93
F2 27 09 4E 78 49 48 11 68 9C F7 23 0A 4C FA 99
01 00 F3 23 1A 53 58 83 FA 23 19 B3 09 63 0C 49
6E 4E 1E F3 01 20 1E 83 8F 4C 00 00 30 4D 00 00
0E 3E 4E 55 4D 42 45 52 1B 42 B6 1D 3C 4F 38 4F
29 4F 2F 82 82 4B C0 04 6A 4C 7A 80 3A 00 03 28
7A 80 07 00 12 28 7A 50 0A 00 0A 9B 22 C3 0D 2C
82 49 E0 04 82 48 E2 04 19 42 E4 04 18 42 E6 04
09 5A 08 63 1C 53 1E 83 E7 23 8F 4C 00 00 8F 48
02 00 8F 49 04 00 30 4D 3D 40 F6 4A 32 C0 00 02
3F 82 8F 4E 06 00 08 43 09 43 1B 42 B6 1D 0C 4E
0E 43 1E 15 3D 40 2C 4A 7E 4C 6A 4C 7A 80 2D 00
16 24 C8 2F 2B 43 7A 52 14 24 3B 52 6A 53 11 24
3B 40 10 00 5A 93 0D 24 6A 92 41 20 3E 90 03 00
3E 20 FC 9C 01 00 6C 4C 8F 4C 04 00 38 3C B1 43
02 00 1E 83 FC 9C 00 00 E0 23 AC 27 2E 4A 2F 24
2D 83 6A 4C 7A 90 5F 00 BD 27 32 B0 00 02 27 20
32 D0 00 02 7A 80 2E 00 B5 27 6A 53 20 20 0A 4E
09 43 8F 49 02 00 5A 83 09 4A 09 5C 69 49 79 80
3A 00 03 28 79 80 07 00 0C 28 79 50 0A 00 09 9B
08 2C 8F 49 00 00 0E 4B 2C 15 B0 12 AA 47 2A 17
E8 3F 9F 4F 04 00 02 00 AF 4F 04 00 4A 93 1D 17
04 24 3F 50 06 00 0E F3 30 4D 2F 53 9F 4F 02 00
04 00 BF 4F 00 00 3E E3 09 20 3E E3 BF E3 02 00
BF E3 00 00 9F 53 02 00 8F 63 00 00 32 B0 00 06
33 26 30 4D 9E 47 03 5C 92 42 B8 1D BC 1D 30 4D
0D 12 84 12 14 46 B2 48 40 46 96 46 1E 49 E0 4A
0A 4E 3E 4F 71 27 3D 40 D6 4A 1A E2 B4 1D A3 24
0E 12 3E 4F 30 41 F8 4A 3E 4F 3D 40 D6 4A 0F 20
3D 40 2E 4D DE 53 00 00 68 4E 08 5E F8 40 3F 00
00 00 34 3C 00 00 0F 4C 49 54 45 52 41 4C 82 93
B4 1D 0D 24 09 4E 1A 42 BE 1D A2 52 BE 1D BA 40
EC 45 00 00 8A 49 02 00 3E 4F 32 B0 00 02 32 C0
00 02 03 24 8A 4E 02 00 EE 3F 30 4D 2F 83 8F 4E
00 00 3E 40 7E 1C 0E 8F 0E 11 0E 5E 0E 7E 3E E3
30 4D 2F 83 8F 4E 00 00 0E 43 B2 90 40 FF BE 1D
F6 2F 30 4D 3C 48 0A 43 4F 55 4E 54 2F 83 7A 4E
8F 4E 00 00 0E 4A 3E F3 30 4D D6 44 0A 41 4C 4C
4F 54 82 5E BE 1D 3E 4F 30 4D B0 12 00 44 3F 40
80 1C 0E 43 31 40 E0 1C 84 12 00 46 02 0D 0A 00
D0 45 24 46 D0 4A 4C 4B 00 46 0B 73 74 61 63 6B
20 65 6D 70 74 79 20 44 62 4B 00 46 09 46 52 41
4D 20 66 75 6C 6C 20 44 42 46 AA 4B 8C 4B 0D 41
42 4F 52 54 22 00 0D 12 84 12 64 47 EC 45 20 44
36 4C 36 48 00 00 02 27 0D 12 84 12 B2 48 1E 49
3C 46 06 4C 36 48 00 4B 2E 47 07 5B 27 5D 0D 12
84 12 F8 4B EC 45 EC 45 36 4C 36 4C 36 48 0A 4C
03 5B 82 43 B4 1D 30 4D 00 00 02 5D B2 43 B4 1D
30 4D 16 4B 02 2C A2 53 BE 1D 1A 42 BE 1D CA 4E
FE FF 8E 10 CA 4E FF FF 3E 4F 30 4D 00 00 11 50
4F 53 54 50 4F 4E 45 00 0D 12 84 12 B2 48 1E 49
40 46 06 4C 5A 4B 3C 46 76 4C EC 45 EC 45 36 4C
36 4C EC 45 36 4C 36 4C 36 48 00 00 02 3A 30 12
C6 4C 92 B3 BE 1D A2 63 BE 1D 0D 12 84 12 B2 48
92 4C 3D 41 08 4E FE 5E FF FF 5A D3 5A 53 0A 58
19 42 C2 1D 6E 4E 3E F0 1F 00 0E 5E 09 5E 3E 4F
82 48 D6 1D 82 49 D8 1D 82 4A DA 1D 82 4F DC 1D
82 4A BE 1D 30 41 BA 40 0D 12 00 00 BA 40 84 12
02 00 A2 52 BE 1D AA 3F 7C 4C 0E 3A 4E 4F 4E 41
4D 45 30 12 C6 4C 2F 83 8F 4E 00 00 1A 42 BE 1D
1A B3 0A 63 0E 4A 39 40 12 02 08 49 D9 3F 82 9F
DC 1D 0B 20 82 43 DC 1D 18 42 D6 1D 19 42 D8 1D
A8 49 FE FF 89 48 00 00 30 4D 84 12 00 46 0F 73
74 61 63 6B 20 6D 69 73 6D 61 74 63 68 21 2A 44
20 4C 03 3B 82 93 B4 1D C7 26 0D 12 84 12 EC 45
36 48 36 4C FE 4C 22 4C 36 48 00 00 12 49 4D 4D
45 44 49 41 54 45 18 42 D6 1D D8 D3 00 00 30 4D
76 4B 0C 43 52 45 41 54 45 00 B0 12 82 4C 2A 52
BA 40 86 12 FC FF 8A 4A FE FF 82 4A BE 1D C8 3F
4C 4D 05 49 53 00 0D 12 82 93 B4 1D 08 20 84 12
F8 4B 94 4D 3D 41 BE 4F 02 00 3E 4F 30 4D 84 12
0E 4C EC 45 96 4D 36 4C 36 48 00 00 DE 4B 00 00
56 4E 00 00 84 4E 18 49 F6 4B D2 4E 82 4D 00 00
64 45 34 4C 60 4F 9A 48 00 00 4E 4C 00 00 10 4F
42 50 CA 45 72 48 00 00 AA 48 00 00 00 00 DA 4C
32 4D C6 4A 2A 4C 70 49 00 00 00 00 00 00 48 55
AE 55 36 54 00 00 E8 54 F6 55 02 56 00 00 AE 54
00 00 00 00 BA 4E 96 52 00 00 00 00 C6 56 00 00
AA 56 68 54 C4 54 1A 55 00 00 58 55 88 53 00 00
00 00 00 00 00 00 00 00 00 00 1E 56 EA 4D 62 4D
08 43 4F 44 45 00 B0 12 82 4C B2 40 AA 4D C6 1D
B2 40 EC 4D C4 1D 30 4D B2 40 AA 4D C4 1D 82 43
C6 1D 30 4D 30 4E 0E 43 4F 44 45 4E 4E 4D 30 12
3A 4E 41 3F 50 48 0E 48 44 4E 43 4F 44 45 12 12
C2 1D B2 40 EC 4D C2 1D B0 12 82 4C B2 41 C2 1D
DC 3F A8 45 0E 45 4E 44 43 4F 44 45 0D 12 84 12
FE 4C 48 4E 36 48 00 00 0A 43 4F 4C 4F 4E 1A 42
BE 1D BA 40 0D 12 00 00 BA 40 84 12 02 00 A2 52
BE 1D B2 43 B4 1D C8 3F 00 00 0A 4C 4F 32 48 49
1A 42 BE 1D BA 40 84 12 00 00 A2 53 BE 1D F1 3F
66 4E 0B 48 49 32 4C 4F A2 53 BE 1D 1A 42 BE 1D
8A 4A FE FF 82 43 B4 1D A8 3F 00 00 0E 52 53 54
5F 53 45 54 39 40 BE 1D 3A 40 42 18 30 12 F4 45
2B 42 BA 49 00 00 2A 53 1B 83 FB 23 30 41 EC 4E
0E 52 53 54 5F 52 45 54 39 40 42 18 3A 40 BE 1D
2C 49 B0 12 00 4F 1A 42 C0 1D 3B 40 20 00 09 4A
08 49 29 83 18 48 FE FF 0C 98 FC 2B 89 48 00 00
1B 83 F6 23 2A 4A 0A 93 F0 23 30 4D 4E 4F 09 4E
3A 40 42 18 B0 12 00 4F 3E 4F 3D 41 DD 3F 00 00
0C 4D 41 52 4B 45 52 00 12 12 BC 1D 0D 12 84 12
B2 48 1E 49 3C 46 90 4F 4E 47 5C 46 EC 45 85 12
56 47 3C 46 8C 4F 00 46 00 00 2A 44 F0 4A 94 4F
92 4F 3E 4F 3D 41 B2 41 BC 1D B0 12 82 4C 2A 52
BA 40 85 12 FC FF BA 40 4C 4F FE FF 28 83 39 40
BE 1D 89 48 00 00 B0 12 00 4F 82 4A BE 1D A2 3E
3D 41 92 12 3C 18 39 40 24 18 B2 49 E0 44 B2 49
9E 45 B2 49 6A 45 B2 49 30 46 B2 49 B6 1D B2 49
00 1C 82 43 B4 1D 37 49 36 49 35 49 34 49 32 C0
00 0E 8E 11 4E 93 90 37 5E B3 8E 23 39 40 10 00
29 83 B9 43 80 FF FC 23 B9 40 62 50 FE FF 29 83
B9 40 32 50 FE FF 39 90 CE FF F9 23 39 40 0E 18
B2 49 F0 FF 3B 40 0A 00 3A 40 38 18 B0 12 02 4F
73 3F 6E 42 F2 B0 20 00 21 02 05 20 7E 82 03 3C
5E 48 06 53 59 53 92 12 38 18 4E 93 02 24 5E B3
03 24 B0 12 C0 4F 8E 44 C2 4E 06 18 B2 40 04 A5
20 01 92 D3 04 01 B2 D0 10 00 00 01 B2 40 80 5A
5C 01 3F 40 80 1C 31 40 E0 1C B2 40 FE FF 02 02
B2 D3 06 02 B2 D3 26 02 B2 40 FF BF 22 02 F2 43
22 03 F2 D3 26 03 F2 40 A5 00 61 01 82 43 62 01
82 43 66 01 B2 40 33 00 64 01 D2 43 61 01 39 40
40 00 18 42 00 18 18 83 FE 23 19 83 FA 23 B2 D2
B0 01 F2 D0 10 00 2A 03 F2 C0 40 00 A1 04 39 40
00 08 29 83 89 43 00 1C FC 23 19 42 9E 01 5E 42
06 18 C2 43 06 18 7E B3 01 20 0E 49 B0 12 C0 4F
8E 44 12 12 BC 1D 84 12 BC 48 CC 49 3C 46 02 51
2E 51 1E 49 06 51 3E 4F 03 20 B2 41 BC 1D 30 41
3C 4E 3C 80 87 12 0B 24 1C 53 02 20 2E 4E 07 3C
BE 90 4C 4F 00 00 02 20 3E 50 0C 00 2E 83 21 53
30 41 92 83 BC 1D 3E 40 28 00 0A 4E 3D 15 B0 12
F2 50 15 20 3E 40 2B 00 B0 12 F2 50 06 20 3E 40
2D 00 B0 12 F2 50 92 83 BC 1D 0E 12 1E 41 02 00
84 12 BC 48 CC 49 3C 46 06 4C 6C 51 3E 51 3A 17
30 41 B0 12 32 51 19 42 BE 1D 89 4E 00 00 A2 53
BE 1D 3E 40 29 00 92 53 BC 1D 1A 42 BC 1D 3D 15
84 12 BC 48 CC 49 3C 46 A4 51 9C 51 3E 90 10 00
E6 2B 51 2D A6 51 A2 41 BC 1D E1 3F 03 20 B0 12
8A 51 31 20 7A 90 23 00 0B 20 B0 12 3A 51 3C 40
30 00 19 42 BE 1D A2 53 BE 1D 89 4E 00 00 25 3C
7A 90 26 00 05 20 3C 40 10 02 B0 12 3A 51 F1 3F
7A 90 40 00 0A 20 3C 40 20 00 B0 12 86 51 13 20
3E 40 2B 00 B0 12 8A 51 07 20 B0 12 72 51 3E 90
03 00 02 20 A2 83 BE 1D 3C D0 10 00 3A 40 00 40
0A 9C 82 63 BC 1D 8E 10 0C 5E 3E 4F 30 4D 03 20
B0 12 8A 51 F9 23 7A 90 26 00 03 20 3C D0 82 00
D4 3F 3C D0 80 00 B0 12 72 51 EE 23 30 40 00 4B
0C 43 1B 42 BE 1D A2 53 BE 1D 3A 40 20 00 19 42
BA 1D 19 52 BC 1D 7A 99 FE 27 5A 49 FF FF 19 82
BA 1D 82 49 BC 1D 7A 90 52 00 30 4D EC 45 2C 00
40 52 AC 51 EC 45 20 00 4A 52 1E 52 7E 52 3D 41
2C DE 8B 4C 00 00 C9 3F 00 00 06 4D 4F 56 85 12
6C 52 00 40 8A 52 0A 4D 4F 56 2E 42 85 12 6C 52
40 40 00 00 06 41 44 44 85 12 6C 52 00 50 A4 52
0A 41 44 44 2E 42 85 12 6C 52 40 50 B0 52 08 41
44 44 43 00 85 12 6C 52 00 60 BE 52 0C 41 44 44
43 2E 42 00 85 12 6C 52 40 60 00 00 08 53 55 42
43 00 85 12 6C 52 00 70 DC 52 0C 53 55 42 43 2E
42 00 85 12 6C 52 40 70 EA 52 06 53 55 42 85 12
6C 52 00 80 FA 52 0A 53 55 42 2E 42 85 12 6C 52
40 80 98 4E 06 43 4D 50 85 12 6C 52 00 90 14 53
0A 43 4D 50 2E 42 85 12 6C 52 40 90 00 00 06 42
49 54 85 12 6C 52 00 B0 2E 53 0A 42 49 54 2E 42
85 12 6C 52 40 B0 3A 53 06 42 49 43 85 12 6C 52
00 C0 48 53 0A 42 49 43 2E 42 85 12 6C 52 40 C0
54 53 06 42 49 53 85 12 6C 52 00 D0 62 53 0A 42
49 53 2E 42 85 12 6C 52 40 D0 00 00 06 58 4F 52
85 12 6C 52 00 E0 7C 53 0A 58 4F 52 2E 42 85 12
6C 52 40 E0 CC 52 06 41 4E 44 85 12 6C 52 00 F0
96 53 0A 41 4E 44 2E 42 85 12 6C 52 40 F0 EC 45
20 00 40 52 AC 51 B8 53 0A 4C 3C F0 70 00 8A 10
3A F0 0F 00 0C DA 5B 3F 00 00 06 52 52 43 85 12
AE 53 00 10 CA 53 0A 52 52 43 2E 42 85 12 AE 53
40 10 06 53 08 53 57 50 42 00 85 12 AE 53 80 10
D6 53 06 52 52 41 85 12 AE 53 00 11 F2 53 0A 52
52 41 2E 42 85 12 AE 53 40 11 E4 53 06 53 58 54
85 12 AE 53 80 11 00 00 08 50 55 53 48 00 85 12
AE 53 00 12 18 54 0C 50 55 53 48 2E 42 00 85 12
AE 53 40 12 20 53 08 43 41 4C 4C 00 85 12 AE 53
80 12 1A 53 0E 4A 84 12 9C 48 00 46 0D 6F 75 74
20 6F 66 20 62 6F 75 6E 64 73 2A 44 0C 54 06 53
3E 3D 86 12 00 38 5E 54 04 53 3C 00 86 12 00 34
26 54 06 30 3E 3D 86 12 00 30 72 54 04 30 3C 00
86 12 00 30 00 00 04 55 3C 00 86 12 00 2C 86 54
06 55 3E 3D 86 12 00 28 7C 54 06 30 3C 3E 86 12
00 24 9A 54 04 30 3D 00 86 12 00 20 00 00 04 49
46 00 1A 42 BE 1D 8A 4E 00 00 A2 53 BE 1D 0E 4A
30 4D 00 00 08 54 48 45 4E 00 1A 42 BE 1D 08 4E
3E 4F 09 48 29 53 0A 89 0A 11 3A 90 00 02 B2 2F
88 DA 00 00 30 4D 00 00 08 45 4C 53 45 00 1A 42
BE 1D BA 40 00 3C 00 00 A2 53 BE 1D 2F 83 8F 4A
00 00 E3 3F 6E 53 0A 42 45 47 49 4E 2F 83 8F 4E
00 00 1E 42 BE 1D 30 4D 90 54 0A 55 4E 54 49 4C
3A 4F 08 4E 3E 4F 19 42 BE 1D 2A 83 0A 89 0A 11
3A 90 00 FE 87 3B 3A F0 FF 03 08 DA 89 48 00 00
A2 53 BE 1D 30 4D A2 53 0A 41 47 41 49 4E 0A 4E
38 40 00 3C E7 3F 00 00 0A 57 48 49 4C 45 0D 12
84 12 B2 54 42 47 36 48 FE 53 0C 52 45 50 45 41
54 00 0D 12 84 12 4E 55 CA 54 36 48 7E 55 3D 41
08 4E 3E 4F 2A 48 B2 92 BC 1D CB 2F 98 42 BE 1D
00 00 30 4D 06 55 06 42 57 31 85 12 7C 55 00 00
96 55 06 42 57 32 85 12 7C 55 00 00 A2 55 06 42
57 33 85 12 7C 55 00 00 BA 55 3D 41 1A 42 BE 1D
28 4E 8E 43 00 00 B2 92 BC 1D 82 2B BA 4F 00 00
A2 53 BE 1D 8E 4A 00 00 3E 4F 30 4D 00 00 06 46
57 31 85 12 B8 55 00 00 DE 55 06 46 57 32 85 12
B8 55 00 00 EA 55 06 46 57 33 85 12 B8 55 00 00
00 00 08 47 4F 54 4F 00 2F 83 8F 4E 00 00 3E 40
00 3C 0D 12 84 12 F8 4B F0 4A 36 48 00 00 0A 3F
47 4F 54 4F 3E 90 00 30 F4 27 3E E0 00 04 3E B0
00 10 EF 27 3E E0 00 08 EC 3F EC 45 2C 00 4A 52
BC 48 CC 49 3C 46 06 4C EC 45 20 00 40 52 1E 52
52 56 0A 4E 3E 4F 1A 83 F4 32 29 4E 59 0E 0A 28
08 4C 59 0A 01 28 0C 8A 08 8A 38 90 10 00 E9 2E
5A 0E A8 3E 2A 92 E5 2E 8A 10 5A 06 A3 3E 6A 55
08 52 52 43 4D 00 85 12 3A 56 50 00 80 56 08 52
52 41 4D 00 85 12 3A 56 50 01 8E 56 08 52 4C 41
4D 00 85 12 3A 56 50 02 9C 56 08 52 52 55 4D 00
85 12 3A 56 50 03 A4 54 0A 50 55 53 48 4D 85 12
3A 56 00 15 B8 56 08 50 4F 50 4D 00 85 12 3A 56
00 17
@FF80
FF FF FF FF FF FF FF FF FF FF FF FF FF FF FF FF
FF FF FF FF FF FF FF FF FF FF FF FF FF FF FF FF
77 00 10 00 12 00 14 00 16 00 00 00 32 50 32 50
32 50 32 50 32 50 32 50 32 50 32 50 32 50 32 50
32 50 32 50 32 50 32 50 32 50 32 50 32 50 32 50
32 50 32 50 32 50 32 50 32 50 32 50 32 50 32 50
32 50 32 50 32 50 32 50 32 50 32 50 32 50 32 50
12 45 32 50 32 50 32 50 32 50 32 50 32 50 62 50
q
